astroid==1.6.1
autopep8==1.3.4
Django==2.0.2
django-filter==1.1.0
djangorestframework==3.7.7
isort==4.3.4
lazy-object-proxy==1.3.1
mccabe==0.6.1
pwhich==0.1.0
pycodestyle==2.3.1
pylint==1.8.2
pytz==2018.3
six==1.11.0
virtualenv==15.1.0
wrapt==1.10.11
